{
    "images": [{
        "uuid": "162F64E6-DADE-3B98-874D-936B74F8D5F3",
        "type": "Geometry",
        "name": "finish.jpg",
        "url": "finish.jpg"
    }],
    "object": {
        "type": "Scene",
        "uuid": "A49CEE00-78D9-4CE4-BAAA-B6ACF5ABEE6D",
        "children": [{
            "type": "Mesh",
            "name": "Finish.000",
            "uuid": "AC5BC969-F1FF-35F7-9CE1-5AFF20BDA73B",
            "matrix": [-60,0,0,0,0,0,20,0,0,10,0,0,1061,90,0,1],
            "visible": true,
            "material": "F49EE1DF-7210-3D64-A902-F88B766E3C5B",
            "castShadow": true,
            "receiveShadow": true,
            "geometry": "02009FBF-DA18-3571-AF3D-52761AAEF9D1"
        },{
            "type": "Mesh",
            "name": "Flag.000",
            "uuid": "5E597C8A-2882-3760-B704-A0257BAA13CC",
            "matrix": [-1,0,0,0,0,0,1,0,0,50,0,0,1002,150,-19,1],
            "visible": true,
            "material": "794F2AD0-C265-3FB2-B3EF-313786F6090A",
            "castShadow": true,
            "receiveShadow": true,
            "geometry": "B8E15E2C-82D2-3F7C-8052-647DE5814732"
        },{
            "type": "Mesh",
            "name": "Flag.001",
            "uuid": "047AC5E8-9653-3BC7-BE1D-7D776FADAB8B",
            "matrix": [21.492,0,0,0,0,0,1,0,0,10.9494,0,0,979.508,189.051,-19,1],
            "visible": true,
            "material": "9D8A2545-F1EB-3251-B63F-BA16B4AD0604",
            "castShadow": true,
            "receiveShadow": true,
            "geometry": "3C03121A-98B3-3B3C-9B67-00749FD056E1"
        },{
            "type": "Mesh",
            "name": "Ground.000",
            "uuid": "74A7F8B6-6DBA-3BB6-9C97-63C39ED51DB5",
            "matrix": [-0,0,25,0,100,0,1e-06,0,0,50,0,0,75,-50,0,1],
            "visible": true,
            "material": "29A30250-63C3-3FC2-9E32-2D5909D17197",
            "castShadow": true,
            "receiveShadow": true,
            "geometry": "73B0AFE1-6D63-3D87-BEA9-D7749B23B430"
        },{
            "type": "Mesh",
            "name": "Ground.001",
            "uuid": "532295F6-A005-3D83-9511-03847C6FEDFB",
            "matrix": [-0,0,25,0,25,0,0,0,0,50,0,0,270,-50,0,1],
            "visible": true,
            "material": "29A30250-63C3-3FC2-9E32-2D5909D17197",
            "castShadow": true,
            "receiveShadow": true,
            "geometry": "87F37F3E-6D39-3B18-8DAC-D19D0DEB7F80"
        },{
            "type": "Mesh",
            "name": "Ground.002",
            "uuid": "3DD69FCC-3DCB-3F89-A432-8D61DFF2820B",
            "matrix": [-0,0,25,0,100,0,1e-06,0,0,50,0,0,665,-50,0,1],
            "visible": true,
            "material": "29A30250-63C3-3FC2-9E32-2D5909D17197",
            "castShadow": true,
            "receiveShadow": true,
            "geometry": "5CFB008E-5900-3738-BF77-D31E15ACF96B"
        },{
            "type": "Mesh",
            "name": "Platform.000",
            "uuid": "43C4A957-891E-387E-8E0B-6B899556A526",
            "matrix": [-0,0,25,0,10,0,0,0,0,10,0,0,45,10,0,1],
            "visible": true,
            "material": "207BE804-851E-3D08-9CEE-ADDD5916A1FC",
            "castShadow": true,
            "receiveShadow": true,
            "geometry": "4A95F3DE-1DE4-3874-8982-A09B44721890"
        },{
            "type": "Mesh",
            "name": "Platform.001",
            "uuid": "E57E8B04-5725-3F8C-8A9F-158F1E540C92",
            "matrix": [-40,0,0,0,0,0,20,0,0,10,0,0,123,45,0,1],
            "visible": true,
            "material": "207BE804-851E-3D08-9CEE-ADDD5916A1FC",
            "castShadow": true,
            "receiveShadow": true,
            "geometry": "8DC3BA47-84E3-333E-B93B-81E07F49E760"
        },{
            "type": "Mesh",
            "name": "Platform.002",
            "uuid": "4DA55935-3AC2-3615-8DAA-F838DE6D0FAD",
            "matrix": [-20,0,0,0,0,0,20,0,0,10,0,0,325,20,0,1],
            "visible": true,
            "material": "207BE804-851E-3D08-9CEE-ADDD5916A1FC",
            "castShadow": true,
            "receiveShadow": true,
            "geometry": "6BE67E4B-A22B-3C23-9880-5C4BAFE12B15"
        },{
            "type": "Mesh",
            "name": "Platform.003",
            "uuid": "7950788C-21BA-398F-8AE9-356CD9BAC2AD",
            "matrix": [-20,0,0,0,0,0,20,0,0,10,0,0,415,20,0,1],
            "visible": true,
            "material": "207BE804-851E-3D08-9CEE-ADDD5916A1FC",
            "castShadow": true,
            "receiveShadow": true,
            "geometry": "E74D27EB-1873-38E7-B593-2A205D38BB5A"
        },{
            "type": "Mesh",
            "name": "Platform.004",
            "uuid": "DA6F5BF5-78A8-3AE9-8D02-2EECAD9C2256",
            "matrix": [-20,0,0,0,0,0,20,0,0,10,0,0,505,20,0,1],
            "visible": true,
            "material": "207BE804-851E-3D08-9CEE-ADDD5916A1FC",
            "castShadow": true,
            "receiveShadow": true,
            "geometry": "D22082B3-BB28-31E2-BFBE-FF4881D22AC4"
        },{
            "type": "Mesh",
            "name": "Platform.005",
            "uuid": "725BF9DB-EED0-376D-A95E-668E5F719F46",
            "matrix": [-20,0,0,0,0,0,20,0,0,10,0,0,800,20,0,1],
            "visible": true,
            "material": "207BE804-851E-3D08-9CEE-ADDD5916A1FC",
            "castShadow": true,
            "receiveShadow": true,
            "geometry": "D22082B3-BB28-31E2-BFBE-FF4881D22AC4"
        },{
            "type": "Mesh",
            "name": "Platform.006",
            "uuid": "A46194FB-80C3-3A35-A2D6-44EAD38BC707",
            "matrix": [-20,0,0,0,0,0,20,0,0,10,0,0,868,57,0,1],
            "visible": true,
            "material": "207BE804-851E-3D08-9CEE-ADDD5916A1FC",
            "castShadow": true,
            "receiveShadow": true,
            "geometry": "D22082B3-BB28-31E2-BFBE-FF4881D22AC4"
        },{
            "type": "Mesh",
            "name": "Platform.007",
            "uuid": "E1D21E68-94EE-3299-BDA8-E84136001C4E",
            "matrix": [-20,0,0,0,0,0,20,0,0,10,0,0,933,90,0,1],
            "visible": true,
            "material": "207BE804-851E-3D08-9CEE-ADDD5916A1FC",
            "castShadow": true,
            "receiveShadow": true,
            "geometry": "D22082B3-BB28-31E2-BFBE-FF4881D22AC4"
        },{
            "type": "Mesh",
            "name": "Water.000",
            "uuid": "2023619A-A66E-353D-BCF1-A52BEFCC257B",
            "matrix": [-35,0,0,0,0,0,25,0,0,37.5,0,0,210,-62,0,1],
            "visible": true,
            "material": "D4BF50D1-0CDA-317F-9599-78994122D11B",
            "castShadow": true,
            "receiveShadow": true,
            "geometry": "3B712591-8D66-3065-9B28-B296C0217062"
        },{
            "type": "Mesh",
            "name": "Water.001",
            "uuid": "2A881DE7-707F-3A16-A293-4570B0D34C26",
            "matrix": [-135,0,0,0,0,0,25,0,0,37.5,0,0,430,-62,0,1],
            "visible": true,
            "material": "D4BF50D1-0CDA-317F-9599-78994122D11B",
            "castShadow": true,
            "receiveShadow": true,
            "geometry": "12C54F98-55C1-3384-AACD-9476A79A777F"
        },{
            "type": "Mesh",
            "name": "Water.002",
            "uuid": "14064557-D011-3E2F-B62E-094753898E43",
            "matrix": [-378,0,0,0,0,0,25,0,0,37.5,0,0,1143,-62,0,1],
            "visible": true,
            "material": "D4BF50D1-0CDA-317F-9599-78994122D11B",
            "castShadow": true,
            "receiveShadow": true,
            "geometry": "12C54F98-55C1-3384-AACD-9476A79A777F"
        }],
        "matrix": [1,0,0,0,0,1,0,0,0,0,1,0,0,0,0,1]
    },
    "materials": [{
        "depthWrite": true,
        "name": "Finish",
        "color": 8355711,
        "ambient": 8355711,
        "emissive": 0,
        "vertexColors": false,
        "type": "MeshLambertMaterial",
        "map": "57C8C518-0CD0-3866-88FE-BBB14474EBD7",
        "uuid": "F49EE1DF-7210-3D64-A902-F88B766E3C5B",
        "blending": "NormalBlending",
        "depthTest": true,
        "shading": "FlatShading"
    },{
        "depthWrite": true,
        "name": "Ground",
        "color": 10701609,
        "ambient": 10701609,
        "emissive": 0,
        "vertexColors": false,
        "type": "MeshLambertMaterial",
        "uuid": "29A30250-63C3-3FC2-9E32-2D5909D17197",
        "blending": "NormalBlending",
        "depthTest": true,
        "shading": "FlatShading"
    },{
        "emissive": 0,
        "depthWrite": true,
        "uuid": "9D8A2545-F1EB-3251-B63F-BA16B4AD0604",
        "map": "57C8C518-0CD0-3866-88FE-BBB14474EBD7",
        "vertexColors": false,
        "name": "Material.002",
        "color": 10724259,
        "ambient": 10724259,
        "blending": "NormalBlending",
        "type": "MeshPhongMaterial",
        "specular": 8355711,
        "shininess": 50,
        "depthTest": true,
        "shading": "FlatShading"
    },{
        "depthWrite": true,
        "name": "Platform",
        "color": 1336858,
        "ambient": 1336858,
        "emissive": 0,
        "vertexColors": false,
        "type": "MeshLambertMaterial",
        "uuid": "207BE804-851E-3D08-9CEE-ADDD5916A1FC",
        "blending": "NormalBlending",
        "depthTest": true,
        "shading": "FlatShading"
    },{
        "depthWrite": true,
        "name": "Pole",
        "color": 6699286,
        "ambient": 6699286,
        "emissive": 0,
        "vertexColors": false,
        "type": "MeshLambertMaterial",
        "uuid": "794F2AD0-C265-3FB2-B3EF-313786F6090A",
        "blending": "NormalBlending",
        "depthTest": true,
        "shading": "FlatShading"
    },{
        "depthWrite": true,
        "name": "Water",
        "color": 340326,
        "ambient": 340326,
        "emissive": 0,
        "vertexColors": false,
        "type": "MeshLambertMaterial",
        "uuid": "D4BF50D1-0CDA-317F-9599-78994122D11B",
        "blending": "NormalBlending",
        "depthTest": true,
        "shading": "FlatShading"
    }],
    "textures": [{
        "mapping": "UVMapping",
        "repeat": [1,1],
        "name": "Texture",
        "wrap": ["RepeatWrapping","RepeatWrapping"],
        "image": "162F64E6-DADE-3B98-874D-936B74F8D5F3",
        "type": "Geometry",
        "uuid": "57C8C518-0CD0-3866-88FE-BBB14474EBD7",
        "anisotropy": 1,
        "magFilter": "LinearFilter",
        "minFilter": "LinearMipMapLinearFilter"
    },{
        "mapping": "UVMapping",
        "repeat": [1,1],
        "name": "Texture",
        "wrap": ["RepeatWrapping","RepeatWrapping"],
        "image": "162F64E6-DADE-3B98-874D-936B74F8D5F3",
        "type": "Geometry",
        "uuid": "57C8C518-0CD0-3866-88FE-BBB14474EBD7",
        "anisotropy": 1,
        "magFilter": "LinearFilter",
        "minFilter": "LinearMipMapLinearFilter"
    }],
    "geometries": [{
        "type": "Geometry",
        "uuid": "6BE67E4B-A22B-3C23-9880-5C4BAFE12B15",
        "data": {
            "name": "Cube.007Geometry.2",
            "normals": [-0.577349,0.577349,-0.577349,-0.577349,-0.577349,-0.577349,-0.577349,-0.577349,0.577349,-0.577349,0.577349,0.577349,0.577349,0.577349,0.577349,0.577349,0.577349,-0.577349,0.577349,-0.577349,0.577349,0.577349,-0.577349,-0.577349],
            "faces": [33,2,0,1,3,0,1,2,3,33,3,7,6,2,3,4,5,0,33,7,5,4,6,4,6,7,5,33,0,4,5,1,1,7,6,2,33,0,2,6,4,1,0,5,7,33,5,7,3,1,6,4,3,2],
            "vertices": [-1,-1,-1,-1,-1,1,-1,1,-1,-1,1,1,1,-1,-1,1,-1,1,1,1,-1,1,1,1],
            "uvs": [],
            "metadata": {
                "version": 3,
                "normals": 8,
                "faces": 6,
                "generator": "io_three",
                "vertices": 8,
                "uvs": 0
            }
        }
    },{
        "type": "Geometry",
        "uuid": "3C03121A-98B3-3B3C-9B67-00749FD056E1",
        "data": {
            "name": "Cube.012Geometry.2",
            "normals": [-0.577349,0.577349,-0.577349,-0.577349,-0.577349,-0.577349,-0.577349,-0.577349,0.577349,-0.577349,0.577349,0.577349,0.577349,0.577349,0.577349,0.577349,0.577349,-0.577349,0.577349,-0.577349,0.577349,0.577349,-0.577349,-0.577349],
            "faces": [41,2,0,1,3,2,3,0,1,0,1,2,3,41,3,7,6,2,4,5,6,7,3,4,5,0,41,7,5,4,6,8,9,10,11,4,6,7,5,41,0,4,5,1,14,15,12,13,1,7,6,2,41,0,2,6,4,16,17,18,19,1,0,5,7,41,5,7,3,1,20,21,22,23,6,4,3,2],
            "vertices": [-1,-1,-1,-1,-1,1,-1,1,-1,-1,1,1,1,-1,-1,1,-1,1,1,1,-1,1,1,1],
            "uvs": [[0.333134,0.666867,0.0002,0.666867,0.0002,0.9998,0.333134,0.9998,0.666467,0.333533,0.333533,0.333533,0.333533,0.666467,0.666467,0.666467,0.0002,0.333533,0.333134,0.333533,0.333134,0.666467,0.0002,0.666467,0.666867,0.0002,0.9998,0.0002,0.9998,0.333134,0.666867,0.333134,0.333134,0.333134,0.333134,0.0002,0.0002,0.0002,0.0002,0.333134,0.333533,0.333134,0.333533,0.0002,0.666467,0.0002,0.666467,0.333134]],
            "metadata": {
                "version": 3,
                "normals": 8,
                "faces": 6,
                "generator": "io_three",
                "vertices": 8,
                "uvs": 1
            }
        }
    },{
        "type": "Geometry",
        "uuid": "3B712591-8D66-3065-9B28-B296C0217062",
        "data": {
            "name": "Cube.005Geometry.2",
            "normals": [-0.577349,0.577349,-0.577349,-0.577349,-0.577349,-0.577349,-0.577349,-0.577349,0.577349,-0.577349,0.577349,0.577349,0.577349,0.577349,0.577349,0.577349,0.577349,-0.577349,0.577349,-0.577349,0.577349,0.577349,-0.577349,-0.577349],
            "faces": [33,2,0,1,3,0,1,2,3,33,3,7,6,2,3,4,5,0,33,7,5,4,6,4,6,7,5,33,0,4,5,1,1,7,6,2,33,0,2,6,4,1,0,5,7,33,5,7,3,1,6,4,3,2],
            "vertices": [-1,-1,-1,-1,-1,1,-1,1,-1,-1,1,1,1,-1,-1,1,-1,1,1,1,-1,1,1,1],
            "uvs": [],
            "metadata": {
                "version": 3,
                "normals": 8,
                "faces": 6,
                "generator": "io_three",
                "vertices": 8,
                "uvs": 0
            }
        }
    },{
        "type": "Geometry",
        "uuid": "B8E15E2C-82D2-3F7C-8052-647DE5814732",
        "data": {
            "name": "Cube.011Geometry.2",
            "normals": [-0.577349,0.577349,-0.577349,-0.577349,-0.577349,-0.577349,-0.577349,-0.577349,0.577349,-0.577349,0.577349,0.577349,0.577349,0.577349,0.577349,0.577349,0.577349,-0.577349,0.577349,-0.577349,0.577349,0.577349,-0.577349,-0.577349],
            "faces": [33,2,0,1,3,0,1,2,3,33,3,7,6,2,3,4,5,0,33,7,5,4,6,4,6,7,5,33,0,4,5,1,1,7,6,2,33,0,2,6,4,1,0,5,7,33,5,7,3,1,6,4,3,2],
            "vertices": [-1,-1,-1,-1,-1,1,-1,1,-1,-1,1,1,1,-1,-1,1,-1,1,1,1,-1,1,1,1],
            "uvs": [],
            "metadata": {
                "version": 3,
                "normals": 8,
                "faces": 6,
                "generator": "io_three",
                "vertices": 8,
                "uvs": 0
            }
        }
    },{
        "type": "Geometry",
        "uuid": "8DC3BA47-84E3-333E-B93B-81E07F49E760",
        "data": {
            "name": "CubeGeometry.2",
            "normals": [-0.577349,0.577349,-0.577349,-0.577349,-0.577349,-0.577349,-0.577349,-0.577349,0.577349,-0.577349,0.577349,0.577349,0.577349,0.577349,0.577349,0.577349,0.577349,-0.577349,0.577349,-0.577349,0.577349,0.577349,-0.577349,-0.577349],
            "faces": [33,2,0,1,3,0,1,2,3,33,3,7,6,2,3,4,5,0,33,7,5,4,6,4,6,7,5,33,0,4,5,1,1,7,6,2,33,0,2,6,4,1,0,5,7,33,5,7,3,1,6,4,3,2],
            "vertices": [-1,-1,-1,-1,-1,1,-1,1,-1,-1,1,1,1,-1,-1,1,-1,1,1,1,-1,1,1,1],
            "uvs": [],
            "metadata": {
                "version": 3,
                "normals": 8,
                "faces": 6,
                "generator": "io_three",
                "vertices": 8,
                "uvs": 0
            }
        }
    },{
        "type": "Geometry",
        "uuid": "87F37F3E-6D39-3B18-8DAC-D19D0DEB7F80",
        "data": {
            "name": "Cube.004Geometry.2",
            "normals": [0.577349,0.577349,-0.577349,0.577349,0.577349,0.577349,0.577349,-0.577349,0.577349,0.577349,-0.577349,-0.577349,-0.577349,-0.577349,0.577349,-0.577349,-0.577349,-0.577349,-0.577349,0.577349,0.577349,-0.577349,0.577349,-0.577349,-0.707083,0,0.707083,-0.707083,0,-0.707083,0.707083,0,0.707083,0.707083,0,-0.707083],
            "faces": [33,1,0,2,3,0,1,2,3,33,3,2,6,7,3,2,4,5,33,7,6,4,5,5,4,6,7,33,0,1,5,4,1,0,7,6,33,0,4,6,2,1,6,4,2,33,5,1,3,7,7,0,3,5,33,9,11,10,8,4,8,9,5,33,15,13,12,14,10,2,3,11,33,13,9,8,12,2,4,5,3,33,8,10,14,12,5,9,11,3,33,13,15,11,9,2,10,8,4],
            "vertices": [-1,-1,-1,-1,-1,1,-1,1,-1,-1,1,1,1,-1,-1,1,-1,1,1,1,-1,1,1,1,-1,-1,-1,-1,-1,1,-1,1,-1,-1,1,1,1,-1,-1,1,-1,1,1,1,-1,1,1,1],
            "uvs": [],
            "metadata": {
                "version": 3,
                "normals": 12,
                "faces": 11,
                "generator": "io_three",
                "vertices": 16,
                "uvs": 0
            }
        }
    },{
        "type": "Geometry",
        "uuid": "12C54F98-55C1-3384-AACD-9476A79A777F",
        "data": {
            "name": "Cube.006Geometry.2",
            "normals": [-0.577349,0.577349,-0.577349,-0.577349,-0.577349,-0.577349,-0.577349,-0.577349,0.577349,-0.577349,0.577349,0.577349,0.577349,0.577349,0.577349,0.577349,0.577349,-0.577349,0.577349,-0.577349,0.577349,0.577349,-0.577349,-0.577349],
            "faces": [33,2,0,1,3,0,1,2,3,33,3,7,6,2,3,4,5,0,33,7,5,4,6,4,6,7,5,33,0,4,5,1,1,7,6,2,33,0,2,6,4,1,0,5,7,33,5,7,3,1,6,4,3,2],
            "vertices": [-1,-1,-1,-1,-1,1,-1,1,-1,-1,1,1,1,-1,-1,1,-1,1,1,1,-1,1,1,1],
            "uvs": [],
            "metadata": {
                "version": 3,
                "normals": 8,
                "faces": 6,
                "generator": "io_three",
                "vertices": 8,
                "uvs": 0
            }
        }
    },{
        "type": "Geometry",
        "uuid": "02009FBF-DA18-3571-AF3D-52761AAEF9D1",
        "data": {
            "name": "Cube.003Geometry.2",
            "normals": [-0.577349,0.577349,-0.577349,-0.577349,-0.577349,-0.577349,-0.577349,-0.577349,0.577349,-0.577349,0.577349,0.577349,0.577349,0.577349,0.577349,0.577349,0.577349,-0.577349,0.577349,-0.577349,0.577349,0.577349,-0.577349,-0.577349],
            "faces": [41,2,0,1,3,2,3,0,1,0,1,2,3,41,3,7,6,2,4,5,6,7,3,4,5,0,41,7,5,4,6,8,9,10,11,4,6,7,5,41,0,4,5,1,14,15,12,13,1,7,6,2,41,0,2,6,4,16,17,18,19,1,0,5,7,41,5,7,3,1,12,20,21,13,6,4,3,2],
            "vertices": [-1,-1,-1,-1,-1,1,-1,1,-1,-1,1,1,1,-1,-1,1,-1,1,1,1,-1,1,1,1],
            "uvs": [[0.99982,0.00018,0.666847,0.00018,0.666847,0.333153,0.99982,0.333153,0.666486,0.333514,0.333514,0.333514,0.333514,0.666486,0.666486,0.666486,0.00018,0.666486,0.333153,0.666486,0.333153,0.999459,0.00018,0.999459,0.00018,0.333153,0.333153,0.333153,0.333153,0.666126,0.00018,0.666126,0.666486,0.333153,0.666486,0.00018,0.333514,0.00018,0.333514,0.333153,0.00018,0.00018,0.333153,0.00018]],
            "metadata": {
                "version": 3,
                "normals": 8,
                "faces": 6,
                "generator": "io_three",
                "vertices": 8,
                "uvs": 1
            }
        }
    },{
        "type": "Geometry",
        "uuid": "E74D27EB-1873-38E7-B593-2A205D38BB5A",
        "data": {
            "name": "Cube.008Geometry.2",
            "normals": [-0.577349,0.577349,-0.577349,-0.577349,-0.577349,-0.577349,-0.577349,-0.577349,0.577349,-0.577349,0.577349,0.577349,0.577349,0.577349,0.577349,0.577349,0.577349,-0.577349,0.577349,-0.577349,0.577349,0.577349,-0.577349,-0.577349],
            "faces": [33,2,0,1,3,0,1,2,3,33,3,7,6,2,3,4,5,0,33,7,5,4,6,4,6,7,5,33,0,4,5,1,1,7,6,2,33,0,2,6,4,1,0,5,7,33,5,7,3,1,6,4,3,2],
            "vertices": [-1,-1,-1,-1,-1,1,-1,1,-1,-1,1,1,1,-1,-1,1,-1,1,1,1,-1,1,1,1],
            "uvs": [],
            "metadata": {
                "version": 3,
                "normals": 8,
                "faces": 6,
                "generator": "io_three",
                "vertices": 8,
                "uvs": 0
            }
        }
    },{
        "type": "Geometry",
        "uuid": "5CFB008E-5900-3738-BF77-D31E15ACF96B",
        "data": {
            "name": "Cube.010Geometry.2",
            "normals": [0.577349,0.577349,-0.577349,0.577349,0.577349,0.577349,0.577349,-0.577349,0.577349,0.577349,-0.577349,-0.577349,-0.577349,-0.577349,0.577349,-0.577349,-0.577349,-0.577349,-0.577349,0.577349,0.577349,-0.577349,0.577349,-0.577349,-0.707083,0,0.707083,-0.707083,0,-0.707083,0.707083,0,0.707083,0.707083,0,-0.707083],
            "faces": [33,1,0,2,3,0,1,2,3,33,3,2,6,7,3,2,4,5,33,7,6,4,5,5,4,6,7,33,0,1,5,4,1,0,7,6,33,0,4,6,2,1,6,4,2,33,5,1,3,7,7,0,3,5,33,9,11,10,8,4,8,9,5,33,15,13,12,14,10,2,3,11,33,13,9,8,12,2,4,5,3,33,8,10,14,12,5,9,11,3,33,13,15,11,9,2,10,8,4],
            "vertices": [-1,-1,-1,-1,-1,1,-1,1,-1,-1,1,1,1,-1,-1,1,-1,1,1,1,-1,1,1,1,-1,-1,-1,-1,-1,1,-1,1,-1,-1,1,1,1,-1,-1,1,-1,1,1,1,-1,1,1,1],
            "uvs": [],
            "metadata": {
                "version": 3,
                "normals": 12,
                "faces": 11,
                "generator": "io_three",
                "vertices": 16,
                "uvs": 0
            }
        }
    },{
        "type": "Geometry",
        "uuid": "73B0AFE1-6D63-3D87-BEA9-D7749B23B430",
        "data": {
            "name": "Cube.001Geometry.2",
            "normals": [0.577349,0.577349,-0.577349,0.577349,0.577349,0.577349,0.577349,-0.577349,0.577349,0.577349,-0.577349,-0.577349,-0.577349,-0.577349,0.577349,-0.577349,-0.577349,-0.577349,-0.577349,0.577349,0.577349,-0.577349,0.577349,-0.577349,-0.707083,0,0.707083,-0.707083,0,-0.707083,0.707083,0,0.707083,0.707083,0,-0.707083],
            "faces": [33,1,0,2,3,0,1,2,3,33,3,2,6,7,3,2,4,5,33,7,6,4,5,5,4,6,7,33,0,1,5,4,1,0,7,6,33,0,4,6,2,1,6,4,2,33,5,1,3,7,7,0,3,5,33,9,11,10,8,4,8,9,5,33,15,13,12,14,10,2,3,11,33,13,9,8,12,2,4,5,3,33,8,10,14,12,5,9,11,3,33,13,15,11,9,2,10,8,4],
            "vertices": [-1,-1,-1,-1,-1,1,-1,1,-1,-1,1,1,1,-1,-1,1,-1,1,1,1,-1,1,1,1,-1,-1,-1,-1,-1,1,-1,1,-1,-1,1,1,1,-1,-1,1,-1,1,1,1,-1,1,1,1],
            "uvs": [],
            "metadata": {
                "version": 3,
                "normals": 12,
                "faces": 11,
                "generator": "io_three",
                "vertices": 16,
                "uvs": 0
            }
        }
    },{
        "type": "Geometry",
        "uuid": "D22082B3-BB28-31E2-BFBE-FF4881D22AC4",
        "data": {
            "name": "Cube.009Geometry.2",
            "normals": [-0.577349,0.577349,-0.577349,-0.577349,-0.577349,-0.577349,-0.577349,-0.577349,0.577349,-0.577349,0.577349,0.577349,0.577349,0.577349,0.577349,0.577349,0.577349,-0.577349,0.577349,-0.577349,0.577349,0.577349,-0.577349,-0.577349],
            "faces": [33,2,0,1,3,0,1,2,3,33,3,7,6,2,3,4,5,0,33,7,5,4,6,4,6,7,5,33,0,4,5,1,1,7,6,2,33,0,2,6,4,1,0,5,7,33,5,7,3,1,6,4,3,2],
            "vertices": [-1,-1,-1,-1,-1,1,-1,1,-1,-1,1,1,1,-1,-1,1,-1,1,1,1,-1,1,1,1],
            "uvs": [],
            "metadata": {
                "version": 3,
                "normals": 8,
                "faces": 6,
                "generator": "io_three",
                "vertices": 8,
                "uvs": 0
            }
        }
    },{
        "type": "Geometry",
        "uuid": "4A95F3DE-1DE4-3874-8982-A09B44721890",
        "data": {
            "name": "Cube.002Geometry.2",
            "normals": [-0.577349,0.577349,-0.577349,-0.577349,-0.577349,-0.577349,-0.577349,-0.577349,0.577349,-0.577349,0.577349,0.577349,0.577349,0.577349,0.577349,0.577349,0.577349,-0.577349,0.577349,-0.577349,0.577349,0.577349,-0.577349,-0.577349],
            "faces": [33,2,0,1,3,0,1,2,3,33,3,7,6,2,3,4,5,0,33,7,5,4,6,4,6,7,5,33,0,4,5,1,1,7,6,2,33,0,2,6,4,1,0,5,7,33,5,7,3,1,6,4,3,2],
            "vertices": [-1,-1,-1,-1,-1,1,-1,1,-1,-1,1,1,1,-1,-1,1,-1,1,1,1,-1,1,1,1],
            "uvs": [],
            "metadata": {
                "version": 3,
                "normals": 8,
                "faces": 6,
                "generator": "io_three",
                "vertices": 8,
                "uvs": 0
            }
        }
    }],
    "metadata": {
        "generator": "io_three",
        "type": "Object",
        "version": 4.3,
        "sourceFile": "level_final.blend"
    }
}